Project 1
…
fulldata <- fulldata %>% mutate(`%_Cases` = (Cases/population) * 
    100)
fulldata %>% group_by(`Metro Area`) %>% summarize(`mean_cases_%` = mean(`%_Cases`))

## # A tibble: 2 x 2
##   `Metro Area` `mean_cases_%`
##   <fct>                 <dbl>
## 1 Metro                  3.00
## 2 Non-Metro              2.97

fulldata %>% select(`County Name`, `Metro Area`, `NCHS Urban Rural Classification (2013)`, 
    Cases) %>% filter(Cases == 0)

##     County Name Metro Area NCHS Urban Rural Classification (2013) Cases
## 1   King County  Non-Metro                               Non-core     0
## 2 Loving County  Non-Metro                               Non-core     0

fulldata %>% select(`%_Cases`, `County Name`, `Metro Area`) %>% 
    arrange(desc(`%_Cases`))

##      %_Cases       County Name Metro Area
## 1  64.321608     Martin County      Metro
## 2  62.043651     DeWitt County  Non-Metro
## 3  23.423300  Matagorda County  Non-Metro
## 4  17.201276      Delta County  Non-Metro
## 5  14.083516      Ellis County      Metro
## 6  10.726608     Marion County  Non-Metro
## 7  10.632571   McMullen County  Non-Metro
## 8  10.028698       Lamb County  Non-Metro
## 9   9.180862  McCulloch County  Non-Metro
## 10  6.063714     Karnes County  Non-Metro
## 11  5.807340       Hale County  Non-Metro
## 12  5.711557      Moore County  Non-Metro
## 13  5.670007    Willacy County  Non-Metro
## 14  5.650238        Bee County  Non-Metro
## 15  5.569934 Deaf Smith County  Non-Metro
## 16  5.442111    Cameron County      Metro
## 17  5.354850      Starr County  Non-Metro
## 18  5.270195     Potter County      Metro
## 19  5.233586     Walker County  Non-Metro
## 20  5.170190     Lavaca County  Non-Metro
## 21  5.135096   Gonzales County  Non-Metro
## 22  5.116898       Webb County      Metro
## 23  5.062362     Concho County  Non-Metro
## 24  4.912098   Anderson County  Non-Metro
## 25  4.904954       Frio County  Non-Metro
## 26  4.763279   Crockett County  Non-Metro
## 27  4.638376     Brooks County  Non-Metro
## 28  4.633004     Parmer County  Non-Metro
## 29  4.627911     Scurry County  Non-Metro
## 30  4.613972  Val Verde County  Non-Metro
## 31  4.549618      Titus County  Non-Metro
## 32  4.461716    Refugio County  Non-Metro
## 33  4.461144   Victoria County      Metro
##  [ reached 'max' / getOption("max.print") -- omitted 221 rows ]
…
